…
    ## `summarise()` has grouped output by 'Variables'. You can override using the
    ## `.groups` argument.

``` r
print(missingVar)
```

    ## # A tibble: 28 × 2
    ## # Groups:   Variables [28]
    ##    Variables                        num.missing
    ##    <chr>                                  <int>
    ##  1 amenities                               2518
    ##  2 prop_management_company_name            1363
    ##  3 parking_type                             350
    ##  4 no_barrier_free_accessible_units         154
    ##  5 no_of_accessible_parking_spaces          123
    ##  6 exterior_fire_escape                      95
    ##  7 non-smoking_building                      94
    ##  8 intercom                                  90
    ##  9 pets_allowed                              90
    ## 10 year_registered                           89
    ## # ℹ 18 more rows
…
